\relax 
\@writefile{toc}{\contentsline {section}{\numberline {1}Overview}{1}{}\protected@file@percent }
\@writefile{toc}{\contentsline {section}{\numberline {2}Coding random numbers}{1}{}\protected@file@percent }
\@writefile{toc}{\contentsline {subsection}{\numberline {2.1}In C}{1}{}\protected@file@percent }
\@writefile{toc}{\contentsline {subsection}{\numberline {2.2}In Python}{2}{}\protected@file@percent }
\@writefile{toc}{\contentsline {section}{\numberline {3}The assignment}{2}{}\protected@file@percent }
\gdef \@abspage@last{3}
