\relax 
\@writefile{toc}{\contentsline {section}{\numberline {1}Exploring the low-amplitude behavior in more detail}{1}\protected@file@percent }
\@writefile{toc}{\contentsline {section}{\numberline {2}Testing the nonlinear behavior}{3}\protected@file@percent }
