\relax 
\@writefile{toc}{\contentsline {section}{\numberline {1}Part 1: Hooke's Law Forces (due before class 8 November)}{1}\protected@file@percent }
\@writefile{toc}{\contentsline {subsection}{\numberline {1.1}Background}{1}\protected@file@percent }
\@writefile{toc}{\contentsline {subsection}{\numberline {1.2}Assignment}{2}\protected@file@percent }
