\relax 
\@writefile{toc}{\contentsline {section}{\numberline {1}Pseudocode}{}{}\protected@file@percent }
\@writefile{toc}{\contentsline {section}{\numberline {2}The prime number problem}{}{}\protected@file@percent }
\@writefile{toc}{\contentsline {subsection}{\numberline {2.1}Counting prime numbers}{}{}\protected@file@percent }
\@writefile{toc}{\contentsline {subsection}{\numberline {2.2}Determining if a number is prime}{}{}\protected@file@percent }
\@writefile{toc}{\contentsline {subsection}{\numberline {2.3}Determining if a number is divisible by another number}{}{}\protected@file@percent }
\gdef \@abspage@last{3}
