\relax 
\@writefile{toc}{\contentsline {section}{\numberline {1}Euler's method for a single first-order DE}{1}{}\protected@file@percent }
\@writefile{toc}{\contentsline {section}{\numberline {2}The RK2 algorithm}{6}{}\protected@file@percent }
\@writefile{toc}{\contentsline {section}{\numberline {3}Euler's method for a single second-order DE}{8}{}\protected@file@percent }
\@writefile{toc}{\contentsline {section}{\numberline {4}RK2 for a single second-order DE}{9}{}\protected@file@percent }
\@writefile{toc}{\contentsline {section}{\numberline {5}Euler's method for a system of many DE's}{9}{}\protected@file@percent }
\@writefile{toc}{\contentsline {section}{\numberline {6}RK2 for a system of many DE's}{10}{}\protected@file@percent }
\@writefile{toc}{\contentsline {section}{\numberline {7}Orbits around a fixed star}{11}{}\protected@file@percent }
\gdef \@abspage@last{12}
