\relax 
\@writefile{toc}{\contentsline {section}{\numberline {1}Taylor series}{1}{}\protected@file@percent }
\@writefile{toc}{\contentsline {subsection}{\numberline {1.1}``The hierarchy of smallness''}{1}{}\protected@file@percent }
\@writefile{toc}{\contentsline {subsection}{\numberline {1.2}Taylor series as approximation methods}{2}{}\protected@file@percent }
\@writefile{toc}{\contentsline {section}{\numberline {2}The approach}{2}{}\protected@file@percent }
\@writefile{toc}{\contentsline {section}{\numberline {3}Integrating the exact function}{3}{}\protected@file@percent }
\newlabel{eq-exact}{{4}{3}}
\@writefile{toc}{\contentsline {section}{\numberline {4}The left-hand rule}{3}{}\protected@file@percent }
\@writefile{toc}{\contentsline {section}{\numberline {5}The midpoint rule}{4}{}\protected@file@percent }
\@writefile{toc}{\contentsline {section}{\numberline {6}The trapezoid rule}{5}{}\protected@file@percent }
\@writefile{toc}{\contentsline {section}{\numberline {7}Summary}{6}{}\protected@file@percent }
\@writefile{toc}{\contentsline {section}{\numberline {8}Simpson's rule}{6}{}\protected@file@percent }
\gdef \@abspage@last{7}
