\relax 
\@writefile{toc}{\contentsline {section}{\numberline {1}The problem}{1}{}\protected@file@percent }
\@writefile{toc}{\contentsline {section}{\numberline {2}The logarithmic axis and the geometric progression}{3}{}\protected@file@percent }
\@writefile{toc}{\contentsline {section}{\numberline {3}Power-law relationships and log-log plots}{5}{}\protected@file@percent }
\@writefile{toc}{\contentsline {section}{\numberline {4}Determining the power}{5}{}\protected@file@percent }
\gdef \@abspage@last{7}
