\relax 
\@writefile{toc}{\contentsline {section}{\numberline {1}Looping over stepsizes}{1}{}\protected@file@percent }
\@writefile{toc}{\contentsline {subsection}{\numberline {1.1}Coding a geometric series}{1}{}\protected@file@percent }
\@writefile{toc}{\contentsline {section}{\numberline {2}Interpreting your data}{3}{}\protected@file@percent }
\@writefile{toc}{\contentsline {section}{\numberline {3}Why do my data look like this?}{3}{}\protected@file@percent }
\@writefile{toc}{\contentsline {subsection}{\numberline {3.1}Wiggly Lines}{3}{}\protected@file@percent }
\@writefile{toc}{\contentsline {subsection}{\numberline {3.2}Broken lines}{4}{}\protected@file@percent }
\@writefile{toc}{\contentsline {subsection}{\numberline {3.3}The check mark graph}{6}{}\protected@file@percent }
\@writefile{toc}{\contentsline {subsection}{\numberline {3.4}Missing data}{7}{}\protected@file@percent }
\gdef \@abspage@last{7}
