\relax 
\@writefile{toc}{\contentsline {section}{\numberline {1}Modeling continuous things}{1}{}\protected@file@percent }
\@writefile{toc}{\contentsline {section}{\numberline {2}A digression on ``lattice spacing''}{1}{}\protected@file@percent }
\@writefile{toc}{\contentsline {section}{\numberline {3}How to model a string}{2}{}\protected@file@percent }
\@writefile{toc}{\contentsline {subsection}{\numberline {3.1}Notation reference}{2}{}\protected@file@percent }
\@writefile{toc}{\contentsline {subsection}{\numberline {3.2}Deriving the microscopic properties from the macroscopic ones}{2}{}\protected@file@percent }
\@writefile{toc}{\contentsline {section}{\numberline {4}The force law}{4}{}\protected@file@percent }
\@writefile{toc}{\contentsline {section}{\numberline {5}Coding strategy}{4}{}\protected@file@percent }
\gdef \@abspage@last{5}
