\relax 
\@writefile{toc}{\contentsline {section}{\numberline {1}The problem}{}\protected@file@percent }
\@writefile{toc}{\contentsline {section}{\numberline {2}Symplectic solvers}{}\protected@file@percent }
\@writefile{toc}{\contentsline {subsection}{\numberline {2.1}The Euler-Cromer solver}{}\protected@file@percent }
\@writefile{toc}{\contentsline {subsection}{\numberline {2.2}The ``backwards" Euler-Cromer solver}{}\protected@file@percent }
\@writefile{toc}{\contentsline {section}{\numberline {3}The leapfrog solver}{}\protected@file@percent }
\@writefile{toc}{\contentsline {section}{\numberline {4}Summary of integrators}{}\protected@file@percent }
\@writefile{toc}{\contentsline {subsection}{\numberline {4.1}Euler: first order}{}\protected@file@percent }
\@writefile{toc}{\contentsline {subsection}{\numberline {4.2}RK2: second order}{}\protected@file@percent }
\@writefile{toc}{\contentsline {subsection}{\numberline {4.3}Euler-Cromer, position first: first order symplectic}{}\protected@file@percent }
\@writefile{toc}{\contentsline {subsection}{\numberline {4.4}Euler-Cromer, velocity first: first order symplectic}{}\protected@file@percent }
\@writefile{toc}{\contentsline {subsection}{\numberline {4.5}Leapfrog: second order symplectic}{}\protected@file@percent }
